<svg width="24" height="24" viewBox="0 0 24 24" fill="#a3aed0" xmlns="http://www.w3.org/2000/svg">
<path fill-rule="evenodd" clip-rule="evenodd" d="M14.4522 3.17438L11.9944 5.63219C11.6039 6.02272 10.9707 6.02272 10.5802 5.63219C10.1897 5.24167 10.1897 4.6085 10.5802 4.21798L13.0552 1.74298C13.0661 1.73207 13.0773 1.72141 13.0887 1.71101C14.3267 0.582658 15.9518 -0.0253035 17.6264 0.0134652C19.301 0.0522339 20.8963 0.734752 22.0807 1.91919C23.2651 3.10362 23.9477 4.69889 23.9864 6.37349C24.0252 8.04809 23.4172 9.67323 22.2889 10.9112C22.2781 10.9231 22.267 10.9346 22.2557 10.9459L18.7207 14.4684C18.7203 14.4688 18.7199 14.4692 18.7194 14.4697C18.117 15.0741 17.4012 15.5536 16.6131 15.8809C15.8244 16.2085 14.9788 16.3771 14.1248 16.3771C13.2708 16.3771 12.4252 16.2085 11.6365 15.8809C10.8479 15.5534 10.1316 15.0734 9.52888 14.4684C9.13908 14.0771 9.14027 13.444 9.53152 13.0542C9.92278 12.6644 10.5559 12.6655 10.9457 13.0568C11.3627 13.4753 11.8581 13.8073 12.4036 14.0339C12.9492 14.2605 13.5341 14.3771 14.1248 14.3771C14.7155 14.3771 15.3004 14.2605 15.846 14.0339C16.3915 13.8073 16.887 13.4753 17.3039 13.0568L17.3065 13.0542L20.8261 9.54704C21.5981 8.69138 22.0136 7.57249 21.987 6.41978C21.9601 5.25945 21.4872 4.15409 20.6665 3.3334C19.8458 2.51271 18.7404 2.03979 17.5801 2.01293C16.4271 1.98624 15.308 2.40202 14.4522 3.17438Z" fill="#a3aed0"/>
<path fill-rule="evenodd" clip-rule="evenodd" d="M9.87508 9.62305C9.28437 9.62305 8.69946 9.73968 8.15392 9.96625C7.60837 10.1928 7.11293 10.5249 6.69601 10.9433L6.69344 10.9459L3.17381 14.4531C2.40181 15.3088 1.98624 16.4277 2.01293 17.5804C2.03979 18.7407 2.51271 19.8461 3.3334 20.6667C4.15409 21.4874 5.25945 21.9604 6.41978 21.9872C7.57277 22.0139 8.69193 21.5981 9.54766 20.8258L12.0055 18.368C12.396 17.9774 13.0292 17.9774 13.4197 18.368C13.8102 18.7585 13.8102 19.3916 13.4197 19.7822L10.9447 22.2572C10.9338 22.2681 10.9226 22.2787 10.9112 22.2891C9.67323 23.4175 8.04809 24.0255 6.37349 23.9867C4.69889 23.9479 3.10362 23.2654 1.91919 22.081C0.734752 20.8965 0.0522339 19.3013 0.0134652 17.6267C-0.0253035 15.9521 0.582658 14.3269 1.71101 13.0889C1.72181 13.0771 1.73288 13.0655 1.74423 13.0542L5.27916 9.53178C5.27961 9.53133 5.28006 9.53088 5.28051 9.53042C5.88296 8.92607 6.59873 8.44651 7.38682 8.1192C8.1755 7.79166 9.02109 7.62305 9.87508 7.62305C10.7291 7.62305 11.5747 7.79166 12.3633 8.1192C13.152 8.44675 13.8683 8.92679 14.471 9.53178C14.8608 9.92304 14.8596 10.5562 14.4684 10.946C14.0771 11.3358 13.444 11.3346 13.0542 10.9433C12.6372 10.5249 12.1418 10.1928 11.5963 9.96625C11.0507 9.73968 10.4658 9.62305 9.87508 9.62305Z" fill="#a3aed0"/>
</svg>
